#Command: "C:\Program Files\Microsoft Visual Studio 10.0\Common7\IDE\devenv.exe" "D:\KENNETH\SourceCode\AIMS\Cooperative Accounting.02.03.2015\Clicksoftware - Cooperative Accounting.sln"
C:\WINDOWS\ASSEMBLY\NATIVEIMAGES_V4.0.30319_32\MSCORLIB\246F1A5ABB686B9DCDF22D3505B08CEA\MSCORLIB.NI.DLL
C:\WINDOWS\ASSEMBLY\GAC_MSIL\MICROSOFT.VISUALSTUDIO.HOSTINGPROCESS.UTILITIES\10.0.0.0__B03F5F7F11D50A3A\MICROSOFT.VISUALSTUDIO.HOSTINGPROCESS.UTILITIES.DLL
C:\WINDOWS\ASSEMBLY\NATIVEIMAGES_V4.0.30319_32\SYSTEM.WINDOWS.FORMS\17E020AE92D7FAB33BCC1C98B25019D0\SYSTEM.WINDOWS.FORMS.NI.DLL
C:\WINDOWS\ASSEMBLY\NATIVEIMAGES_V4.0.30319_32\SYSTEM.DRAWING\DD57BC19F5807C6DBE8F88D4A23277F6\SYSTEM.DRAWING.NI.DLL
C:\WINDOWS\ASSEMBLY\NATIVEIMAGES_V4.0.30319_32\SYSTEM\964DA027EBCA3B263A05CADB8EAA20A3\SYSTEM.NI.DLL
C:\WINDOWS\ASSEMBLY\GAC_MSIL\MICROSOFT.VISUALSTUDIO.HOSTINGPROCESS.UTILITIES.SYNC\10.0.0.0__B03F5F7F11D50A3A\MICROSOFT.VISUALSTUDIO.HOSTINGPROCESS.UTILITIES.SYNC.DLL
C:\WINDOWS\ASSEMBLY\GAC_MSIL\MICROSOFT.VISUALSTUDIO.DEBUGGER.RUNTIME\10.0.0.0__B03F5F7F11D50A3A\MICROSOFT.VISUALSTUDIO.DEBUGGER.RUNTIME.DLL
D:\KENNETH\SOURCECODE\AIMS\COOPERATIVE ACCOUNTING.02.03.2015\MCANET\BIN\X86\DEBUG\CSACCTG.VSHOST.EXE
C:\WINDOWS\ASSEMBLY\NATIVEIMAGES_V4.0.30319_32\ACCESSIBILITY\01254CAA0EFC15B5CD48FB3178018701\ACCESSIBILITY.NI.DLL
C:\WINDOWS\MICROSOFT.NET\ASSEMBLY\GAC_MSIL\ACCESSIBILITY\V4.0_4.0.0.0__B03F5F7F11D50A3A\ACCESSIBILITY.DLL
C:\WINDOWS\ASSEMBLY\GAC_MSIL\CRYSTALDECISIONS.CRYSTALREPORTS.ENGINE\13.0.2000.0__692FBEA5521E1304\CRYSTALDECISIONS.CRYSTALREPORTS.ENGINE.DLL
C:\WINDOWS\ASSEMBLY\GAC_MSIL\CRYSTALDECISIONS.REPORTSOURCE\13.0.2000.0__692FBEA5521E1304\CRYSTALDECISIONS.REPORTSOURCE.DLL
C:\WINDOWS\ASSEMBLY\GAC_MSIL\CRYSTALDECISIONS.SHARED\13.0.2000.0__692FBEA5521E1304\CRYSTALDECISIONS.SHARED.DLL
C:\WINDOWS\ASSEMBLY\GAC_MSIL\CRYSTALDECISIONS.WINDOWS.FORMS\13.0.2000.0__692FBEA5521E1304\CRYSTALDECISIONS.WINDOWS.FORMS.DLL
C:\WINDOWS\ASSEMBLY\GAC_MSIL\MICROSOFT.REPORTVIEWER.COMMON\10.0.0.0__B03F5F7F11D50A3A\MICROSOFT.REPORTVIEWER.COMMON.DLL
C:\WINDOWS\ASSEMBLY\GAC_MSIL\MICROSOFT.REPORTVIEWER.WINFORMS\10.0.0.0__B03F5F7F11D50A3A\MICROSOFT.REPORTVIEWER.WINFORMS.DLL
C:\WINDOWS\MICROSOFT.NET\ASSEMBLY\GAC_MSIL\MICROSOFT.VISUALBASIC.COMPATIBILITY\V4.0_10.0.0.0__B03F5F7F11D50A3A\MICROSOFT.VISUALBASIC.COMPATIBILITY.DLL
C:\WINDOWS\ASSEMBLY\GAC_MSIL\MICROSOFT.VISUALBASIC.POWERPACKS.VS\10.0.0.0__B03F5F7F11D50A3A\MICROSOFT.VISUALBASIC.POWERPACKS.VS.DLL
C:\WINDOWS\ASSEMBLY\NATIVEIMAGES_V4.0.30319_32\SYSTEM.DATA\92CCCEDC7CDA413FF6FC6492CB256B58\SYSTEM.DATA.NI.DLL
C:\WINDOWS\ASSEMBLY\NATIVEIMAGES_V4.0.30319_32\SYSTEM.CORE\713647B987B140A17E3C4FFE4C721F85\SYSTEM.CORE.NI.DLL
C:\WINDOWS\ASSEMBLY\NATIVEIMAGES_V4.0.30319_32\SYSTEM.DEPLOYMENT\90FD7FC9FBF5F4EED9135996B515A38A\SYSTEM.DEPLOYMENT.NI.DLL
C:\WINDOWS\MICROSOFT.NET\ASSEMBLY\GAC_MSIL\SYSTEM.DESIGN\V4.0_4.0.0.0__B03F5F7F11D50A3A\SYSTEM.DESIGN.DLL
C:\WINDOWS\ASSEMBLY\NATIVEIMAGES_V4.0.30319_32\SYSTEM.SECURITY\09A97525AE5583CC2685E2C39A3078BD\SYSTEM.SECURITY.NI.DLL
C:\WINDOWS\ASSEMBLY\NATIVEIMAGES_V4.0.30319_32\SYSTEM.SERVICEPROCE#\6E7F1BDC845816DFC797F8002B76B5E8\SYSTEM.SERVICEPROCESS.NI.DLL
C:\WINDOWS\MICROSOFT.NET\ASSEMBLY\GAC_32\SYSTEM.WEB\V4.0_4.0.0.0__B03F5F7F11D50A3A\SYSTEM.WEB.DLL
C:\WINDOWS\MICROSOFT.NET\ASSEMBLY\GAC_MSIL\SYSTEM.WEB.SERVICES\V4.0_4.0.0.0__B03F5F7F11D50A3A\SYSTEM.WEB.SERVICES.DLL
C:\WINDOWS\ASSEMBLY\NATIVEIMAGES_V4.0.30319_32\SYSTEM.WINDOWS.FORM#\9CF13572472DC2EFE8F3B7C2AB6198D3\SYSTEM.WINDOWS.FORMS.DATAVISUALIZATION.NI.DLL
C:\WINDOWS\ASSEMBLY\NATIVEIMAGES_V4.0.30319_32\SYSTEM.XML\E997D0200C25F7DB6BD32313D50B729D\SYSTEM.XML.NI.DLL
C:\WINDOWS\ASSEMBLY\NATIVEIMAGES_V4.0.30319_32\STDOLE\709DA05984C2449F4B64EC45A1091E9A\STDOLE.NI.DLL
C:\WINDOWS\ASSEMBLY\NATIVEIMAGES_V4.0.30319_32\MICROSOFT.VISUALBAS#\E8AB3B63BADE82C3522613F2B1240C0D\MICROSOFT.VISUALBASIC.NI.DLL
D:\KENNETH\SOURCECODE\AIMS\COOPERATIVE ACCOUNTING.02.03.2015\MCANET\BIN\X86\DEBUG\CSACCTG.EXE
D:\KENNETH\SOURCECODE\AIMS\COOPERATIVE ACCOUNTING.02.03.2015\MCANET\BIN\X86\DEBUG\CSACCTG.PDB
C:\WINDOWS\MICROSOFT.NET\ASSEMBLY\GAC_MSIL\SYSTEM.RUNTIME.REMOTING\V4.0_4.0.0.0__B77A5C561934E089\SYSTEM.RUNTIME.REMOTING.DLL
C:\WINDOWS\ASSEMBLY\NATIVEIMAGES_V4.0.30319_32\SYSTEM.CONFIGURATION\AC18C2DCD06BD2A0589BAC94CCAE5716\SYSTEM.CONFIGURATION.NI.DLL
D:\KENNETH\SOURCECODE\AIMS\COOPERATIVE ACCOUNTING.02.03.2015\MCANET\BIN\X86\DEBUG\MICROSOFT.APPLICATIONBLOCKS.DATA.DLL
C:\WINDOWS\ASSEMBLY\NATIVEIMAGES_V4.0.30319_32\SYSTEM.TRANSACTIONS\DD9DBF82E44454689976A49A9E4DDB6D\SYSTEM.TRANSACTIONS.NI.DLL
C:\WINDOWS\ASSEMBLY\NATIVEIMAGES_V4.0.30319_32\SYSTEM.ENTERPRISESE#\8B6E9D6171AAD3561263CE2CD05C57DF\SYSTEM.ENTERPRISESERVICES.NI.DLL
C:\WINDOWS\ASSEMBLY\NATIVEIMAGES_V4.0.30319_32\SYSTEM.ENTERPRISESE#\8B6E9D6171AAD3561263CE2CD05C57DF\SYSTEM.ENTERPRISESERVICES.WRAPPER.DLL
D:\KENNETH\SOURCECODE\AIMS\COOPERATIVE ACCOUNTING.02.03.2015\MCANET\BIN\X86\DEBUG\WPM EDCRYPT.DLL
D:\KENNETH\SOURCECODE\AIMS\COOPERATIVE ACCOUNTING.02.03.2015\MCANET\BIN\X86\DEBUG\ACCLEXPLORERBAR.DLL
C:\WINDOWS\ASSEMBLY\NATIVEIMAGES_V4.0.30319_32\SYSTEM.NUMERICS\B07F0D26A34AD53FC369248F289D1126\SYSTEM.NUMERICS.NI.DLL
C:\WINDOWS\ASSEMBLY\GAC_MSIL\CRYSTALDECISIONS.REPORTAPPSERVER.COMMLAYER\13.0.2000.0__692FBEA5521E1304\CRYSTALDECISIONS.REPORTAPPSERVER.COMMLAYER.DLL
C:\WINDOWS\ASSEMBLY\GAC_MSIL\CRYSTALDECISIONS.REPORTAPPSERVER.CLIENTDOC\13.0.2000.0__692FBEA5521E1304\CRYSTALDECISIONS.REPORTAPPSERVER.CLIENTDOC.DLL
C:\WINDOWS\ASSEMBLY\GAC_MSIL\CRYSTALDECISIONS.REPORTAPPSERVER.DATADEFMODEL\13.0.2000.0__692FBEA5521E1304\CRYSTALDECISIONS.REPORTAPPSERVER.DATADEFMODEL.DLL
C:\WINDOWS\ASSEMBLY\GAC_MSIL\CRYSTALDECISIONS.REPORTAPPSERVER.CUBEDEFMODEL\13.0.2000.0__692FBEA5521E1304\CRYSTALDECISIONS.REPORTAPPSERVER.CUBEDEFMODEL.DLL
C:\WINDOWS\ASSEMBLY\GAC_MSIL\CRYSTALDECISIONS.REPORTAPPSERVER.REPORTDEFMODEL\13.0.2000.0__692FBEA5521E1304\CRYSTALDECISIONS.REPORTAPPSERVER.REPORTDEFMODEL.DLL
C:\WINDOWS\ASSEMBLY\GAC_MSIL\CRYSTALDECISIONS.REPORTAPPSERVER.CONTROLLERS\13.0.2000.0__692FBEA5521E1304\CRYSTALDECISIONS.REPORTAPPSERVER.CONTROLLERS.DLL
C:\WINDOWS\ASSEMBLY\GAC_MSIL\CRYSTALDECISIONS.REPORTAPPSERVER.DATASETCONVERSION\13.0.2000.0__692FBEA5521E1304\CRYSTALDECISIONS.REPORTAPPSERVER.DATASETCONVERSION.DLL
C:\WINDOWS\ASSEMBLY\GAC_32\LOG4NET\1.2.10.0__692FBEA5521E1304\LOG4NET.DLL
C:\WINDOWS\ASSEMBLY\NATIVEIMAGES_V4.0.30319_32\CUSTOMMARSHALERS\D2574C8AE333FF959BE2E0D83121AD10\CUSTOMMARSHALERS.NI.DLL
C:\WINDOWS\ASSEMBLY\GAC_MSIL\CRYSTALDECISIONS.REPORTAPPSERVER.XMLSERIALIZE\13.0.2000.0__692FBEA5521E1304\CRYSTALDECISIONS.REPORTAPPSERVER.XMLSERIALIZE.DLL
C:\WINDOWS\ASSEMBLY\GAC_MSIL\CRYSTALDECISIONS.WEB\13.0.2000.0__692FBEA5521E1304\CRYSTALDECISIONS.WEB.DLL
C:\WINDOWS\ASSEMBLY\GAC\FLASHCONTROLV71\1.0.3187.32366__692FBEA5521E1304\FLASHCONTROLV71.DLL
